<?xml version="1.0" encoding="UTF-8" standalone="no"?>
<svg
   xmlns:dc="http://purl.org/dc/elements/1.1/"
   xmlns:cc="http://creativecommons.org/ns#"
   xmlns:rdf="http://www.w3.org/1999/02/22-rdf-syntax-ns#"
   xmlns:svg="http://www.w3.org/2000/svg"
   xmlns="http://www.w3.org/2000/svg"
   xmlns:xlink="http://www.w3.org/1999/xlink"
   xmlns:sodipodi="http://sodipodi.sourceforge.net/DTD/sodipodi-0.dtd"
   xmlns:inkscape="http://www.inkscape.org/namespaces/inkscape"
   width="512"
   height="512"
   viewBox="0 0 135.46666 135.46667"
   version="1.1"
   id="svg2435"
   inkscape:version="1.0.1 (3bc2e813f5, 2020-09-07, custom)"
   sodipodi:docname="firu_vet.svg">
  <defs
     id="defs2429">
    <linearGradient
       id="linearGradient3565"
       inkscape:collect="always">
      <stop
         id="stop3561"
         offset="0"
         style="stop-color:#3e6866;stop-opacity:1" />
      <stop
         id="stop3563"
         offset="1"
         style="stop-color:#45b4a8;stop-opacity:0.51282054" />
    </linearGradient>
    <radialGradient
       r="20.579754"
       fy="278.0426"
       fx="94.90258"
       cy="278.0426"
       cx="94.90258"
       gradientTransform="matrix(3.2256446,0,0,0.0916436,-237.86557,93.895813)"
       gradientUnits="userSpaceOnUse"
       id="radialGradient1299-3"
       xlink:href="#linearGradient3565"
       inkscape:collect="always" />
  </defs>
  <g
     inkscape:label="Layer 1"
     inkscape:groupmode="layer"
     id="layer1">
    <ellipse
       style="fill:url(#radialGradient1299-3);fill-opacity:1;fill-rule:nonzero;stroke:none;stroke-width:1.26017;stroke-linecap:round;stroke-linejoin:round;stroke-miterlimit:4;stroke-dasharray:none;stroke-opacity:1;paint-order:normal"
       id="ellipse1236-6"
       cx="68.256363"
       cy="119.37658"
       rx="66.382973"
       ry="2.0468166" />
    <path
       sodipodi:nodetypes="ccccccc"
       inkscape:connector-curvature="0"
       id="path1441"
       d="m 7.7184377,31.563535 c -0.8268128,0.05924 -0.7895866,0.632324 -0.9476014,1.137118 l -5.1170345,18.762469 130.7686482,4e-6 -4.73799,-18.95199 c -0.15498,-0.399084 -0.52949,-0.937509 -1.13712,-0.947587 z"
       style="fill:#3e6866;fill-opacity:1;stroke:#3e6866;stroke-width:1.43259;stroke-linecap:butt;stroke-linejoin:round;stroke-miterlimit:4;stroke-dasharray:none;stroke-opacity:1" />
    <path
       inkscape:connector-curvature="0"
       id="path1528"
       d="M 11.319311,52.031672 V 113.81512 H 123.13599 V 52.031672 Z"
       style="fill:#45b4a8;fill-opacity:1;stroke:none;stroke-width:0.18952px;stroke-linecap:butt;stroke-linejoin:miter;stroke-opacity:1" />
    <rect
       style="fill:#d0fff5;fill-opacity:1;fill-rule:nonzero;stroke:#3e6866;stroke-width:0.324591;stroke-linecap:round;stroke-linejoin:round;stroke-miterlimit:4;stroke-dasharray:none;stroke-opacity:1;paint-order:normal"
       id="rect1483"
       width="23.144989"
       height="15.802143"
       x="65.995811"
       y="69.088486" />
    <rect
       y="69.088486"
       x="90.514999"
       height="15.802143"
       width="23.144989"
       id="rect1485"
       style="fill:#d0fff5;fill-opacity:1;fill-rule:nonzero;stroke:#3e6866;stroke-width:0.324482;stroke-linecap:round;stroke-linejoin:round;stroke-miterlimit:4;stroke-dasharray:none;stroke-opacity:1;paint-order:normal" />
    <rect
       y="85.883766"
       x="65.995811"
       height="15.802143"
       width="23.144989"
       id="rect1487"
       style="fill:#d0fff5;fill-opacity:1;fill-rule:nonzero;stroke:#3e6866;stroke-width:0.324591;stroke-linecap:round;stroke-linejoin:round;stroke-miterlimit:4;stroke-dasharray:none;stroke-opacity:1;paint-order:normal" />
    <circle
       r="5.2355142"
       cy="75.447227"
       cx="96.882347"
       id="path1499"
       style="fill:none;fill-opacity:1;fill-rule:nonzero;stroke:#3e6866;stroke-width:0.506381;stroke-linecap:round;stroke-linejoin:round;stroke-miterlimit:4;stroke-dasharray:none;stroke-opacity:1;paint-order:normal" />
    <circle
       r="0.89751679"
       cy="75.772606"
       cx="96.715874"
       id="path1501"
       style="fill:#6ec2b3;fill-opacity:1;fill-rule:nonzero;stroke:none;stroke-width:0.506381;stroke-linecap:round;stroke-linejoin:round;stroke-miterlimit:4;stroke-dasharray:none;stroke-opacity:0.513725;paint-order:normal" />
    <path
       sodipodi:nodetypes="ccc"
       inkscape:connector-curvature="0"
       id="path1505"
       d="m 96.708741,72.325417 v 3.461752 h 4.621699"
       style="fill:none;stroke:#6ec2b3;stroke-width:0.282062px;stroke-linecap:butt;stroke-linejoin:miter;stroke-opacity:1" />
    <rect
       transform="matrix(0.89519479,-0.4456751,0.4225036,0.90636125,0,0)"
       ry="1.0310794"
       y="112.71813"
       x="21.469053"
       height="2.0621588"
       width="6.0906453"
       id="rect1523"
       style="fill:none;fill-opacity:1;fill-rule:nonzero;stroke:#3e6866;stroke-width:0.68069;stroke-linecap:round;stroke-linejoin:round;stroke-miterlimit:4;stroke-dasharray:none;stroke-opacity:1;paint-order:normal" />
    <path
       inkscape:connector-curvature="0"
       id="path1527"
       d="m 69.520435,91.238726 1.053022,1.823879"
       style="fill:none;stroke:#3e6866;stroke-width:0.784226;stroke-linecap:butt;stroke-linejoin:miter;stroke-miterlimit:4;stroke-dasharray:none;stroke-opacity:1" />
    <rect
       style="fill:none;fill-opacity:1;fill-rule:nonzero;stroke:#3e6866;stroke-width:0.675145;stroke-linecap:round;stroke-linejoin:round;stroke-miterlimit:4;stroke-dasharray:none;stroke-opacity:1;paint-order:normal"
       id="rect1525"
       width="6.0410252"
       height="2.0453584"
       x="26.473698"
       y="116.61588"
       ry="1.0226792"
       transform="matrix(0.89519479,-0.44567509,0.4225036,0.90636124,0,0)" />
    <path
       style="fill:none;stroke:#3e6866;stroke-width:0.777837;stroke-linecap:butt;stroke-linejoin:miter;stroke-miterlimit:4;stroke-dasharray:none;stroke-opacity:1"
       d="m 75.591272,92.483492 1.044443,1.809021"
       id="path1529"
       inkscape:connector-curvature="0" />
    <ellipse
       ry="0.7527138"
       rx="1.9508297"
       cy="96.636726"
       cx="82.568863"
       id="path1531"
       style="fill:#3e6866;fill-opacity:1;fill-rule:nonzero;stroke:none;stroke-width:0.785137;stroke-linecap:round;stroke-linejoin:round;stroke-miterlimit:4;stroke-dasharray:none;stroke-opacity:1;paint-order:normal" />
    <path
       sodipodi:nodetypes="cc"
       inkscape:connector-curvature="0"
       id="path1541"
       d="m 82.644801,95.977662 -0.335266,1.111114"
       style="fill:none;stroke:#d0fff5;stroke-width:0.0630489;stroke-linecap:butt;stroke-linejoin:miter;stroke-miterlimit:4;stroke-dasharray:none;stroke-opacity:1" />
    <path
       sodipodi:nodetypes="cc"
       inkscape:connector-curvature="0"
       id="path1543"
       d="m 81.018811,96.431933 3.010634,0.129089"
       style="fill:none;stroke:#d0fff5;stroke-width:0.0642166;stroke-linecap:butt;stroke-linejoin:miter;stroke-miterlimit:4;stroke-dasharray:none;stroke-opacity:1" />
    <rect
       style="fill:#d0fff5;fill-opacity:1;fill-rule:nonzero;stroke:#3e6866;stroke-width:0.324591;stroke-linecap:round;stroke-linejoin:round;stroke-miterlimit:4;stroke-dasharray:none;stroke-opacity:1;paint-order:normal"
       id="rect1489"
       width="23.144989"
       height="15.802143"
       x="90.514999"
       y="85.883766" />
    <path
       inkscape:connector-curvature="0"
       id="path1506"
       d="m 11.319311,113.81512 v 4.92752 H 123.13599 v -4.92752 z"
       style="fill:#3e6866;fill-opacity:1;stroke:none;stroke-width:0.358148;stroke-linecap:butt;stroke-linejoin:round;stroke-miterlimit:4;stroke-dasharray:none;stroke-opacity:1" />
    <path
       sodipodi:nodetypes="ccccc"
       inkscape:connector-curvature="0"
       id="path1463"
       d="m 21.848171,65.677096 c 7.896662,0 15.793316,0 23.689977,0 0,17.056783 0,34.113562 0,51.170344 -7.896661,0 -15.793315,0 -23.689977,0 0,-17.056782 0,-34.113561 0,-51.170344 z"
       style="fill:#d0fff5;fill-opacity:1;stroke:#3e6866;stroke-width:2.14888;stroke-linecap:round;stroke-linejoin:round;stroke-miterlimit:4;stroke-dasharray:none;stroke-opacity:1" />
    <path
       inkscape:connector-curvature="0"
       id="path1469"
       d="M 21.593614,91.079207 H 45.648543"
       style="fill:none;stroke:#3e6866;stroke-width:2.86518;stroke-linecap:butt;stroke-linejoin:miter;stroke-miterlimit:4;stroke-dasharray:none;stroke-opacity:1" />
    <rect
       y="79.688339"
       x="30.773355"
       height="1.2731019"
       width="6.36551"
       id="rect1475"
       style="fill:none;fill-opacity:1;fill-rule:nonzero;stroke:#3e6866;stroke-width:4.29776;stroke-linecap:round;stroke-linejoin:round;stroke-miterlimit:4;stroke-dasharray:none;stroke-opacity:1;paint-order:normal" />
    <text
       id="text1479"
       y="81.107521"
       x="29.176105"
       style="font-style:normal;font-weight:normal;font-size:2.57608px;line-height:1.25;font-family:sans-serif;letter-spacing:0px;word-spacing:0px;fill:#d0fff5;fill-opacity:1;stroke:none;stroke-width:0.138004"
       xml:space="preserve"><tspan
         style="font-style:normal;font-variant:normal;font-weight:normal;font-stretch:normal;font-family:Courgette;-inkscape-font-specification:Courgette;fill:#ffffff;fill-opacity:1;stroke-width:0.138004"
         y="81.107521"
         x="29.176105"
         id="tspan1477"
         sodipodi:role="line">ABIERTO</tspan></text>
    <rect
       y="67.907524"
       x="64.827835"
       height="34.943081"
       width="49.852409"
       id="rect1600"
       style="fill:none;fill-opacity:1;fill-rule:nonzero;stroke:#d0fff5;stroke-width:0.384433;stroke-linecap:round;stroke-linejoin:round;stroke-miterlimit:4;stroke-dasharray:none;stroke-opacity:1;paint-order:normal" />
    <circle
       r="16.677742"
       cy="30.184814"
       cx="68.644669"
       id="path1608"
       style="fill:#3e6866;fill-opacity:1;fill-rule:nonzero;stroke:none;stroke-width:0.324482;stroke-linecap:round;stroke-linejoin:round;stroke-miterlimit:4;stroke-dasharray:none;stroke-opacity:1;paint-order:normal" />
    <path
       inkscape:export-ydpi="96"
       inkscape:export-xdpi="96"
       inkscape:export-filename="/run/media/solinkp/S_V/Personal/InkscapeDesigns/Firulife/firu_logo_2.png"
       sodipodi:nodetypes="ssssssss"
       inkscape:connector-curvature="0"
       id="path1095-6"
       d="m 62.892421,29.666555 -3.796389,1.208274 c -2.368214,0.753738 -2.296898,2.995178 -0.554699,4.572107 0.870613,0.788026 2.04923,-0.03696 3.359179,0.667542 1.025715,0.551617 0.896129,1.979047 2.469603,2.355021 2.521211,0.602421 4.230114,-0.799838 3.539365,-3.099007 l -1.074116,-3.575216 c -0.436304,-1.452252 -1.836992,-2.79898 -3.942943,-2.128721 z"
       style="fill:#ffffff;fill-opacity:1;stroke:#3e6866;stroke-width:0.198;stroke-linecap:butt;stroke-linejoin:miter;stroke-miterlimit:4;stroke-dasharray:none;stroke-opacity:0.50999999" />
    <ellipse
       inkscape:export-ydpi="96"
       inkscape:export-xdpi="96"
       inkscape:export-filename="/run/media/solinkp/S_V/Personal/InkscapeDesigns/Firulife/firu_logo_2.png"
       transform="rotate(-6.0431293)"
       ry="2.1644843"
       rx="1.5370975"
       cy="33.598885"
       cx="56.163464"
       id="ellipse1097-7"
       style="fill:#ffffff;fill-opacity:1;fill-rule:nonzero;stroke:#3e6866;stroke-width:0.198;stroke-linecap:round;stroke-linejoin:round;stroke-miterlimit:4;stroke-dasharray:none;stroke-opacity:0.50999999;paint-order:normal" />
    <ellipse
       inkscape:export-ydpi="96"
       inkscape:export-xdpi="96"
       inkscape:export-filename="/run/media/solinkp/S_V/Personal/InkscapeDesigns/Firulife/firu_logo_2.png"
       style="fill:#ffffff;fill-opacity:1;fill-rule:nonzero;stroke:#3e6866;stroke-width:0.198;stroke-linecap:round;stroke-linejoin:round;stroke-miterlimit:4;stroke-dasharray:none;stroke-opacity:0.50999999;paint-order:normal"
       id="ellipse1099-5"
       cx="-63.100552"
       cy="-46.486477"
       rx="1.5370975"
       ry="2.1644843"
       transform="matrix(-0.47507046,-0.87994776,-0.87994776,0.47507046,0,0)" />
    <ellipse
       inkscape:export-ydpi="96"
       inkscape:export-xdpi="96"
       inkscape:export-filename="/run/media/solinkp/S_V/Personal/InkscapeDesigns/Firulife/firu_logo_2.png"
       transform="matrix(0.7699014,0.63816286,0.63816286,-0.7699014,0,0)"
       ry="2.1644838"
       rx="1.5370975"
       cy="22.748924"
       cx="71.340019"
       id="ellipse1101-3"
       style="fill:#ffffff;fill-opacity:1;fill-rule:nonzero;stroke:#3e6866;stroke-width:0.198;stroke-linecap:round;stroke-linejoin:round;stroke-miterlimit:4;stroke-dasharray:none;stroke-opacity:0.50999999;paint-order:normal" />
    <ellipse
       inkscape:export-ydpi="96"
       inkscape:export-xdpi="96"
       inkscape:export-filename="/run/media/solinkp/S_V/Personal/InkscapeDesigns/Firulife/firu_logo_2.png"
       style="fill:#ffffff;fill-opacity:1;fill-rule:nonzero;stroke:#3e6866;stroke-width:0.198;stroke-linecap:round;stroke-linejoin:round;stroke-miterlimit:4;stroke-dasharray:none;stroke-opacity:0.50999999;paint-order:normal"
       id="ellipse1103-5"
       cx="-69.257004"
       cy="-6.7731543"
       rx="1.5370976"
       ry="2.164484"
       transform="rotate(-164.06203)" />
    <path
       inkscape:connector-curvature="0"
       id="path1439"
       d="m 73.741886,17.30003 h 2.280789 v 4.561575 h 4.561563 v 2.280784 h -4.561563 v 4.561575 h -2.280789 v -4.561575 h -4.561567 v -2.280784 h 4.561567 z"
       style="fill:#ffffff;fill-opacity:1;stroke:#3e6866;stroke-width:0.197709;stroke-linecap:butt;stroke-linejoin:round;stroke-miterlimit:4;stroke-dasharray:none;stroke-opacity:0.50999999" />
    <path
       style="fill:#3e6866;fill-opacity:1;stroke:none;stroke-width:0.44294;stroke-linecap:butt;stroke-linejoin:miter;stroke-miterlimit:4;stroke-dasharray:none;stroke-opacity:1"
       d="m 76.334306,76.474941 -2.842629,0.904721 c -1.773251,0.564378 -1.719851,2.242704 -0.415342,3.423464 0.65189,0.590052 1.534405,-0.02768 2.515258,0.499837 0.768026,0.413034 0.670996,1.481854 1.849168,1.763373 1.887812,0.451075 3.16739,-0.598896 2.650177,-2.320449 L 79.28667,78.068866 c -0.326692,-1.087405 -1.375487,-2.095797 -2.952364,-1.593925 z"
       id="path1475"
       inkscape:connector-curvature="0"
       sodipodi:nodetypes="ssssssss"
       inkscape:export-filename="/run/media/solinkp/S_V/Personal/InkscapeDesigns/Firulife/firu_logo_2.png"
       inkscape:export-xdpi="96"
       inkscape:export-ydpi="96" />
    <ellipse
       style="fill:#3e6866;fill-opacity:1;fill-rule:nonzero;stroke:none;stroke-width:0.44294;stroke-linecap:round;stroke-linejoin:round;stroke-miterlimit:4;stroke-dasharray:none;stroke-opacity:1;paint-order:normal"
       id="ellipse1477"
       cx="65.420868"
       cy="82.196358"
       rx="1.1509349"
       ry="1.6207044"
       transform="rotate(-6.0431291)"
       inkscape:export-filename="/run/media/solinkp/S_V/Personal/InkscapeDesigns/Firulife/firu_logo_2.png"
       inkscape:export-xdpi="96"
       inkscape:export-ydpi="96" />
    <ellipse
       transform="matrix(-0.47507045,-0.87994776,-0.87994776,0.47507045,0,0)"
       ry="1.6207044"
       rx="1.1509349"
       cy="-34.761383"
       cx="-108.88729"
       id="ellipse1479"
       style="fill:#3e6866;fill-opacity:1;fill-rule:nonzero;stroke:none;stroke-width:0.44294;stroke-linecap:round;stroke-linejoin:round;stroke-miterlimit:4;stroke-dasharray:none;stroke-opacity:1;paint-order:normal"
       inkscape:export-filename="/run/media/solinkp/S_V/Personal/InkscapeDesigns/Firulife/firu_logo_2.png"
       inkscape:export-xdpi="96"
       inkscape:export-ydpi="96" />
    <ellipse
       style="fill:#3e6866;fill-opacity:1;fill-rule:nonzero;stroke:none;stroke-width:0.44294;stroke-linecap:round;stroke-linejoin:round;stroke-miterlimit:4;stroke-dasharray:none;stroke-opacity:1;paint-order:normal"
       id="ellipse1481"
       cx="110.55869"
       cy="-6.0809135"
       rx="1.1509349"
       ry="1.6207041"
       transform="matrix(0.7699014,0.63816286,0.63816286,-0.7699014,0,0)"
       inkscape:export-filename="/run/media/solinkp/S_V/Personal/InkscapeDesigns/Firulife/firu_logo_2.png"
       inkscape:export-xdpi="96"
       inkscape:export-ydpi="96" />
    <ellipse
       transform="rotate(-164.06203)"
       ry="1.6207042"
       rx="1.1509351"
       cy="-49.217358"
       cx="-94.875854"
       id="ellipse1483"
       style="fill:#3e6866;fill-opacity:1;fill-rule:nonzero;stroke:none;stroke-width:0.44294;stroke-linecap:round;stroke-linejoin:round;stroke-miterlimit:4;stroke-dasharray:none;stroke-opacity:1;paint-order:normal"
       inkscape:export-filename="/run/media/solinkp/S_V/Personal/InkscapeDesigns/Firulife/firu_logo_2.png"
       inkscape:export-xdpi="96"
       inkscape:export-ydpi="96" />
    <path
       inkscape:export-ydpi="96"
       inkscape:export-xdpi="96"
       inkscape:export-filename="/run/media/solinkp/S_V/Personal/InkscapeDesigns/Firulife/firu_logo_2.png"
       sodipodi:nodetypes="ssssssss"
       inkscape:connector-curvature="0"
       id="path1487"
       d="m 103.52611,92.744771 2.84263,0.904721 c 1.77325,0.564378 1.71985,2.242704 0.41534,3.423464 -0.65189,0.590052 -1.53441,-0.02768 -2.51526,0.499837 -0.76803,0.413034 -0.671,1.481854 -1.84917,1.763373 -1.88781,0.451075 -3.167388,-0.598896 -2.650175,-2.320449 l 0.804265,-2.677021 c 0.32669,-1.087405 1.37549,-2.095797 2.95237,-1.593925 z"
       style="fill:#3e6866;fill-opacity:1;stroke:none;stroke-width:0.44294;stroke-linecap:butt;stroke-linejoin:miter;stroke-miterlimit:4;stroke-dasharray:none;stroke-opacity:1" />
    <ellipse
       inkscape:export-ydpi="96"
       inkscape:export-xdpi="96"
       inkscape:export-filename="/run/media/solinkp/S_V/Personal/InkscapeDesigns/Firulife/firu_logo_2.png"
       transform="matrix(-0.99444293,-0.10527706,-0.10527706,0.99444293,0,0)"
       ry="1.6207044"
       rx="1.1509349"
       cy="79.440605"
       cx="-115.15289"
       id="ellipse1489"
       style="fill:#3e6866;fill-opacity:1;fill-rule:nonzero;stroke:none;stroke-width:0.44294;stroke-linecap:round;stroke-linejoin:round;stroke-miterlimit:4;stroke-dasharray:none;stroke-opacity:1;paint-order:normal" />
    <ellipse
       inkscape:export-ydpi="96"
       inkscape:export-xdpi="96"
       inkscape:export-filename="/run/media/solinkp/S_V/Personal/InkscapeDesigns/Firulife/firu_logo_2.png"
       style="fill:#3e6866;fill-opacity:1;fill-rule:nonzero;stroke:none;stroke-width:0.44294;stroke-linecap:round;stroke-linejoin:round;stroke-miterlimit:4;stroke-dasharray:none;stroke-opacity:1;paint-order:normal"
       id="ellipse1491"
       cx="-37.757523"
       cy="131.2357"
       rx="1.1509349"
       ry="1.6207044"
       transform="rotate(-61.636063)" />
    <ellipse
       inkscape:export-ydpi="96"
       inkscape:export-xdpi="96"
       inkscape:export-filename="/run/media/solinkp/S_V/Personal/InkscapeDesigns/Firulife/firu_logo_2.png"
       transform="rotate(140.34504)"
       ry="1.6207041"
       rx="1.1509349"
       cy="-133.38731"
       cx="-17.533298"
       id="ellipse1493"
       style="fill:#3e6866;fill-opacity:1;fill-rule:nonzero;stroke:none;stroke-width:0.44294;stroke-linecap:round;stroke-linejoin:round;stroke-miterlimit:4;stroke-dasharray:none;stroke-opacity:1;paint-order:normal" />
    <ellipse
       inkscape:export-ydpi="96"
       inkscape:export-xdpi="96"
       inkscape:export-filename="/run/media/solinkp/S_V/Personal/InkscapeDesigns/Firulife/firu_logo_2.png"
       style="fill:#3e6866;fill-opacity:1;fill-rule:nonzero;stroke:none;stroke-width:0.44294;stroke-linecap:round;stroke-linejoin:round;stroke-miterlimit:4;stroke-dasharray:none;stroke-opacity:1;paint-order:normal"
       id="ellipse1495"
       cx="73.603004"
       cy="-114.25081"
       rx="1.1509351"
       ry="1.6207042"
       transform="matrix(0.96155954,-0.27459652,-0.27459652,-0.96155954,0,0)" />
    <text
       id="text1521"
       y="83.428146"
       x="100.66676"
       style="font-style:normal;font-weight:normal;font-size:4.60262px;line-height:1.25;font-family:sans-serif;letter-spacing:0px;word-spacing:0px;fill:#3e6866;fill-opacity:1;stroke:none;stroke-width:0.24657"
       xml:space="preserve"><tspan
         style="font-style:normal;font-variant:normal;font-weight:normal;font-stretch:normal;font-family:Courgette;-inkscape-font-specification:Courgette;fill:#3e6866;fill-opacity:1;stroke-width:0.24657"
         y="83.428146"
         x="100.66676"
         id="tspan1519"
         sodipodi:role="line">24 / 7</tspan></text>
    <ellipse
       style="fill:#3e6866;fill-opacity:1;fill-rule:nonzero;stroke:none;stroke-width:0.785137;stroke-linecap:round;stroke-linejoin:round;stroke-miterlimit:4;stroke-dasharray:none;stroke-opacity:1;paint-order:normal"
       id="ellipse1571"
       cx="84.772774"
       cy="98.102478"
       rx="1.9508297"
       ry="0.7527138" />
    <path
       style="fill:none;stroke:#d0fff5;stroke-width:0.0630489;stroke-linecap:butt;stroke-linejoin:miter;stroke-miterlimit:4;stroke-dasharray:none;stroke-opacity:1"
       d="m 84.848711,97.443412 -0.335266,1.111114"
       id="path1573"
       inkscape:connector-curvature="0"
       sodipodi:nodetypes="cc" />
    <path
       style="fill:none;stroke:#d0fff5;stroke-width:0.0642166;stroke-linecap:butt;stroke-linejoin:miter;stroke-miterlimit:4;stroke-dasharray:none;stroke-opacity:1"
       d="m 83.222721,97.897683 3.010634,0.129089"
       id="path1575"
       inkscape:connector-curvature="0"
       sodipodi:nodetypes="cc" />
  </g>
</svg>
