<?xml version="1.0" encoding="UTF-8" standalone="no"?>
<svg
   xmlns:dc="http://purl.org/dc/elements/1.1/"
   xmlns:cc="http://creativecommons.org/ns#"
   xmlns:rdf="http://www.w3.org/1999/02/22-rdf-syntax-ns#"
   xmlns:svg="http://www.w3.org/2000/svg"
   xmlns="http://www.w3.org/2000/svg"
   xmlns:sodipodi="http://sodipodi.sourceforge.net/DTD/sodipodi-0.dtd"
   xmlns:inkscape="http://www.inkscape.org/namespaces/inkscape"
   width="512"
   height="512"
   viewBox="0 0 135.46666 135.46667"
   version="1.1"
   id="svg2435"
   inkscape:version="1.0.2 (e86c870879, 2021-01-15)"
   sodipodi:docname="firu_lost_found.svg">
  <defs
     id="defs2429">
    <clipPath
       clipPathUnits="userSpaceOnUse"
       id="clipath_lpe_path-effect4876">
      <circle
         r="171.01193"
         cy="2381.9658"
         cx="-5184.6885"
         id="circle4878"
         style="display:block;fill:#ffffff;fill-opacity:1;fill-rule:nonzero;stroke:#45b4a8;stroke-width:0.139984;stroke-linecap:round;stroke-linejoin:round;stroke-miterlimit:4;stroke-dasharray:none;stroke-opacity:1;paint-order:normal" />
    </clipPath>
    <clipPath
       clipPathUnits="userSpaceOnUse"
       id="clipath_lpe_path-effect871">
      <path
         id="lpe_path-effect871"
         style="fill:#ffffff;fill-opacity:1;fill-rule:nonzero;stroke:#45b4a8;stroke-width:0.139984;stroke-linecap:round;stroke-linejoin:round;stroke-miterlimit:4;stroke-dasharray:none;stroke-opacity:1;paint-order:normal"
         class="powerclip"
         d="m -5434.4779,2132.1764 h 499.5788 v 499.5788 h -499.5788 z m 420.8014,249.7894 a 171.01193,171.01193 0 0 0 -171.012,-171.0119 171.01193,171.01193 0 0 0 -171.0119,171.0119 171.01193,171.01193 0 0 0 171.0119,171.012 171.01193,171.01193 0 0 0 171.012,-171.012 z" />
    </clipPath>
    <clipPath
       clipPathUnits="userSpaceOnUse"
       id="clipath_lpe_path-effect917">
      <circle
         r="171.01193"
         cy="2381.9658"
         cx="-5184.6885"
         id="circle919"
         style="display:block;fill:#ffffff;fill-opacity:1;fill-rule:nonzero;stroke:#45b4a8;stroke-width:0.139984;stroke-linecap:round;stroke-linejoin:round;stroke-miterlimit:4;stroke-dasharray:none;stroke-opacity:1;paint-order:normal" />
    </clipPath>
  </defs>
  <g
     inkscape:label="Layer 1"
     inkscape:groupmode="layer"
     id="layer1">
    <path
       style="fill:#3e6866;fill-opacity:1;stroke:none;stroke-width:11.2801;stroke-linejoin:round"
       id="path953"
       sodipodi:type="arc"
       sodipodi:cx="55.385605"
       sodipodi:cy="52.571095"
       sodipodi:rx="51.916122"
       sodipodi:ry="51.916122"
       sodipodi:start="0"
       sodipodi:end="6.2764483"
       sodipodi:open="true"
       sodipodi:arc-type="arc"
       d="M 107.30173,52.571095 A 51.916122,51.916122 0 0 1 55.473045,104.48714 51.916122,51.916122 0 0 1 3.469777,52.745974 51.916122,51.916122 0 0 1 55.123287,0.65563479 51.916122,51.916122 0 0 1 107.30055,52.221338" />
    <path
       style="fill:#3e6866;fill-opacity:1;stroke:#3e6866;stroke-width:0.173385;stroke-linecap:round;stroke-linejoin:round;stroke-miterlimit:4;stroke-dasharray:none;stroke-opacity:1"
       d="m 72.571644,98.86027 c 3.57408,0.28597 8.897413,-1.664312 14.003411,3.38796 l 30.169565,32.45479 c 2.10904,2.11149 18.36422,-9.96714 14.83644,-13.79186 L 101.41145,88.456443 C 96.797736,82.721349 98.814059,80.507743 99.440587,76.061317 91.979438,90.395198 82.432611,95.403287 72.571644,98.86027 Z"
       id="path4866-2"
       sodipodi:nodetypes="ccccccc" />
    <path
       style="fill:#d0fff5;fill-opacity:1;stroke:none;stroke-width:8.74765;stroke-linejoin:round"
       id="path924"
       sodipodi:type="arc"
       sodipodi:cx="55.385605"
       sodipodi:cy="52.571095"
       sodipodi:rx="40.260777"
       sodipodi:ry="40.260777"
       sodipodi:start="0"
       sodipodi:end="6.2764483"
       sodipodi:open="true"
       sodipodi:arc-type="arc"
       d="M 95.646381,52.571095 A 40.260777,40.260777 0 0 1 55.453414,92.831814 40.260777,40.260777 0 0 1 15.125057,52.706713 40.260777,40.260777 0 0 1 55.182178,12.310832 40.260777,40.260777 0 0 1 95.645468,52.299859" />
    <path
       inkscape:export-ydpi="96"
       inkscape:export-xdpi="96"
       style="fill:#45b4a8;fill-opacity:1;stroke:none;stroke-width:0.287385px;stroke-linecap:butt;stroke-linejoin:miter;stroke-opacity:0.513725"
       d="m 54.415223,37.690631 -0.08636,39.179007 C 40.006007,78.052737 30.904082,67.307394 29.446516,57.216339 c -0.488898,-4.449452 -0.318631,-7.434108 -0.08645,-10.28123 -1.291287,-4.599473 -4.223879,-9.828523 -4.294363,-14.753567 4.098857,-0.365557 10.273473,2.406975 14.316423,4.558743 0.782072,0.392501 1.949417,0.370479 2.764726,0 2.557454,-1.248083 4.925357,-2.657476 9.330861,-2.332745 2.228231,0.28417 2.825604,1.626176 2.937514,3.283091 z"
       id="path4854-3"
       inkscape:connector-curvature="0"
       sodipodi:nodetypes="ccccccccc" />
    <path
       inkscape:export-ydpi="96"
       inkscape:export-xdpi="96"
       inkscape:export-filename="/run/media/solinkp/S_V/Personal/InkscapeDesigns/Firulife/firu_logo_2.png"
       sodipodi:nodetypes="csssssscc"
       inkscape:connector-curvature="0"
       id="path4856-5"
       d="m 48.747203,61.786321 -2.076001,-1.248252 c -1.295009,-0.778686 -0.937833,-2.094612 0.314357,-2.782618 0.625807,-0.343822 1.20709,0.309818 2.080996,0.07711 0.684307,-0.182178 0.808224,-1.044797 1.791879,-1.046094 1.57608,-0.0026 2.389949,1.067635 1.658235,2.330632 l -1.137854,1.964019 c -1.314029,2.268144 0.0062,2.385193 -2.631612,0.705176 z"
       style="fill:#ffffff;fill-opacity:1;stroke:none;stroke-width:0.359675;stroke-linecap:butt;stroke-linejoin:miter;stroke-miterlimit:4;stroke-dasharray:none;stroke-opacity:1" />
    <ellipse
       inkscape:export-ydpi="96"
       inkscape:export-xdpi="96"
       style="fill:#ffffff;fill-opacity:1;fill-rule:nonzero;stroke:none;stroke-width:0.465665;stroke-linecap:round;stroke-linejoin:round;stroke-miterlimit:4;stroke-dasharray:none;stroke-opacity:1;paint-order:normal"
       id="ellipse4858-6"
       cx="38.747513"
       cy="49.630413"
       rx="2.6412308"
       ry="2.6337192" />
    <path
       inkscape:connector-curvature="0"
       id="path4860-2"
       d="m 56.542328,37.79123 0.08633,39.178983 c 16.824885,1.49563 26.834409,-14.75496 22.981586,-28.465748 2.399555,5.702794 3.354776,16.715233 7.493521,16.64362 5.585937,-0.721579 4.317225,-16.212575 2.36663,-22.040991 -1.907727,-5.16457 -5.039187,-8.971068 -9.754365,-10.622675 -4.558407,-1.025681 -7.075395,-0.54699 -11.358902,4.118861 -0.161982,0.195722 -0.731281,0.396031 -1.429517,0.03004 -0.706281,-0.370167 -4.395754,-2.118843 -7.980377,-2.127705 -0.711829,0.05463 -2.547223,0.5571 -2.40491,3.285613 z"
       style="fill:#45b4a8;fill-opacity:1;stroke:none;stroke-width:0.287385px;stroke-linecap:butt;stroke-linejoin:miter;stroke-opacity:0.513725"
       sodipodi:nodetypes="cccccccsccc"
       inkscape:export-xdpi="96"
       inkscape:export-ydpi="96" />
    <path
       style="fill:#ffffff;fill-opacity:1;stroke:none;stroke-width:0.396994;stroke-linecap:butt;stroke-linejoin:miter;stroke-miterlimit:4;stroke-dasharray:none;stroke-opacity:1"
       d="m 62.896337,65.443085 2.291343,-1.377764 c 1.429373,-0.859473 1.035142,-2.311924 -0.346993,-3.071303 -0.690695,-0.379509 -1.33228,0.34195 -2.296866,0.08516 -0.755272,-0.201077 -0.892062,-1.153176 -1.977756,-1.154617 -1.739598,-0.0024 -2.637879,1.178368 -1.830255,2.572439 l 1.255864,2.167762 c 1.450338,2.503468 -0.0077,2.632668 2.904663,0.778302 z"
       id="path4862-9"
       inkscape:connector-curvature="0"
       sodipodi:nodetypes="csssssscc"
       inkscape:export-filename="/run/media/solinkp/S_V/Personal/InkscapeDesigns/Firulife/firu_logo_2.png"
       inkscape:export-xdpi="96"
       inkscape:export-ydpi="96" />
    <ellipse
       ry="2.6337192"
       rx="2.6412308"
       cy="49.731052"
       cx="72.146538"
       id="ellipse4864-1"
       style="fill:#ffffff;fill-opacity:1;fill-rule:nonzero;stroke:none;stroke-width:0.465665;stroke-linecap:round;stroke-linejoin:round;stroke-miterlimit:4;stroke-dasharray:none;stroke-opacity:1;paint-order:normal"
       inkscape:export-xdpi="96"
       inkscape:export-ydpi="96" />
  </g>
</svg>
